1.2954e+12,796.98,781.33,83
1.2954e+12,775.58,781.33,82
1.2954e+12,714.13,974.67,70
1.2954e+12,230.3,781.37,94
1.2954e+12,195.99,891.85,74
1.2954e+12,272.4,891.84,75
1.2954e+12,334.55,781.37,94
1.2954e+12,355.28,781.36,80
1.2954e+12,672.59,781.34,82
1.2954e+12,799.31,781.33,83
1.2954e+12,766.59,781.34,82
1.2954e+12,724.59,891.81,78
1.2954e+12,706.2,974.67,70
1.2954e+12,617.3,781.35,81
1.2954e+12,640.14,781.34,82
1.2954e+12,313.23,781.37,94
1.2954e+12,342.69,781.36,0
1.2954e+12,340.56,781.36,94
1.2954e+12,299.44,846.97,75
1.2954e+12,347.33,891.84,76
1.2954e+12,299.45,865.19,75
1.2954e+12,350.96,891.84,76
1.2954e+12,490.01,891.83,77
1.2954e+12,485.67,891.83,76
1.2954e+12,492.23,891.83,77
1.2954e+12,484.42,891.83,76
1.2954e+12,497.83,891.83,77
1.2954e+12,548.43,781.35,81
1.2954e+12,488.51,891.83,77
1.2954e+12,473.7,891.83,76
1.2954e+12,496.54,891.83,77
1.2954e+12,485.89,891.83,76
1.2954e+12,489.72,891.83,77
1.2954e+12,481.49,891.83,76
1.2954e+12,498.21,891.83,77
1.2954e+12,478.09,891.83,76
1.2954e+12,341.33,891.84,75
1.2954e+12,299.48,948.68,67
1.2954e+12,299.52,1041.9,59
1.2954e+12,299.57,1147,51
1.2954e+12,299.61,1250,44
1.2954e+12,307.37,1416.6,37
1.2954e+12,300.02,1499.4,32
1.2954e+12,299.01,1582.3,27
1.2954e+12,274.62,1720.4,21
1.2954e+12,216.86,1657.3,26
1.2954e+12,216.87,1676.9,21
1.2954e+12,216.93,1799.4,16
1.2954e+12,283.87,1858.5,17
1.2954e+12,275.46,1858.5,16
1.2954e+12,292.53,1720.4,22
1.2954e+12,464.54,1720.4,23
1.2954e+12,623.98,1720.4,24
1.2954e+12,825,1659.2,30
1.2954e+12,762.55,1582.3,29
1.2954e+12,770.68,1499.4,35
1.2954e+12,778.51,1416.6,39
1.2954e+12,800.96,1416.6,40
1.2954e+12,824.86,1342.3,48
1.2954e+12,824.81,1228.3,55
1.2954e+12,824.77,1130.5,63
1.2954e+12,824.73,1032.8,71
1.2954e+12,824.74,1044.2,63
1.2954e+12,824.73,1034.1,71
1.2954e+12,824.73,1038.6,63
1.2954e+12,824.73,1030.6,71
1.2954e+12,824.73,1038.5,63
1.2954e+12,824.73,1034.6,71
1.2954e+12,771.99,974.66,70
1.2954e+12,824.71,995.26,71
1.2954e+12,824.73,1044.2,63
1.2954e+12,824.64,822.76,83
1.2954e+12,824.66,872.07,79
1.2954e+12,479.22,1085.2,60
1.2954e+12,465.61,1582.3,28
1.2954e+12,548.33,1085.2,61
1.2954e+12,484.92,1085.2,60
1.2954e+12,396.24,974.69,68
1.2954e+12,481.23,1085.2,60
1.2954e+12,824.72,1008,71
1.2954e+12,824.75,1069.2,63
1.2954e+12,824.73,1025.7,71
1.2954e+12,824.74,1057.5,63
1.2954e+12,824.72,1017.7,71
1.2954e+12,824.73,1038.2,63
1.2954e+12,824.73,1035.8,71
1.2954e+12,824.73,1038.9,63
1.2954e+12,824.72,1021,71
1.2954e+12,492.99,974.68,69
1.2954e+12,473.04,974.68,68
1.2954e+12,488.55,974.68,69
1.2954e+12,451.53,974.69,68
1.2954e+12,741.97,1416.6,39
1.2954e+12,824.93,1492.5,35
1.2954e+12,859.46,1444.2,40
1.2954e+12,931.83,1444.2,41
1.2954e+12,1018.4,1333.7,0
1.2954e+12,811.08,1416.6,40
1.2954e+12,396.24,974.69,68
1.2954e+12,631.25,1085.1,61
1.2954e+12,651.99,1085.1,62
1.2954e+12,626.14,1085.1,61
1.2954e+12,340.96,974.69,67
1.2954e+12,352.61,974.69,68
1.2954e+12,438.77,1085.2,60
1.2954e+12,478.02,974.68,68
1.2954e+12,486.7,974.68,0
1.2954e+12,483.93,974.68,68
1.2954e+12,495.68,974.68,69
1.2954e+12,537.19,1085.2,61
1.2954e+12,396.24,974.69,68
1.2954e+12,824.91,1444.2,40
1.2954e+12,866.37,1444.2,41
1.2954e+12,575.97,1085.2,61
