1.2954e+12,700.28,891.81,78
1.2954e+12,729.61,781.34,82
1.2954e+12,700.31,974.67,70
1.2954e+12,714.18,1085.1,62
1.2954e+12,700.28,891.81,78
1.2954e+12,701.59,781.34,82
1.2954e+12,700.28,891.81,78
1.2954e+12,679.06,781.34,82
1.2954e+12,710.29,891.81,78
1.2954e+12,708.05,781.34,82
1.2954e+12,709.31,891.81,78
1.2954e+12,700.31,974.67,70
1.2954e+12,671.82,891.82,78
1.2954e+12,700.31,974.67,70
1.2954e+12,699.93,891.81,78
1.2954e+12,680.77,781.34,82
1.2954e+12,810.8,781.33,83
1.2954e+12,779.16,781.33,0
1.2954e+12,775.96,781.33,82
1.2954e+12,778.57,781.33,0
1.2954e+12,780.22,781.33,83
1.2954e+12,755.01,781.34,82
1.2954e+12,624.26,781.35,81
1.2954e+12,434.49,781.36,80
1.2954e+12,339.9,781.36,94
1.2954e+12,299.44,845.01,75
1.2954e+12,299.48,944.3,67
1.2954e+12,299.52,1039.6,59
1.2954e+12,299.57,1146,51
1.2954e+12,356.36,1195.6,52
1.2954e+12,299.6,1222.8,51
1.2954e+12,299.61,1244.4,44
1.2954e+12,354.3,1278.5,45
1.2954e+12,488.2,1278.5,46
1.2954e+12,479.56,1278.5,45
1.2954e+12,342.1,1278.5,44
1.2954e+12,330.92,1416.6,37
1.2954e+12,300.04,1499.4,32
1.2954e+12,286.42,1499.4,31
1.2954e+12,284.85,1582.3,27
1.2954e+12,274.54,1582.3,26
1.2954e+12,283.7,1582.3,27
1.2954e+12,216.86,1647.3,26
1.2954e+12,284.85,1720.4,22
1.2954e+12,300.52,1582.3,27
1.2954e+12,284.38,1720.4,22
1.2954e+12,275.18,1720.4,21
1.2954e+12,216.93,1807.4,16
1.2954e+12,216.98,1920.4,11
1.2954e+12,282.77,1996.6,12
1.2954e+12,298.17,2107.1,7
1.2954e+12,351.73,1996.6,12
1.2954e+12,347.05,2107,7
1.2954e+12,377.77,1996.6,12
1.2954e+12,459.68,1996.6,13
1.2954e+12,622.93,1996.6,14
1.2954e+12,570.55,1996.6,13
1.2954e+12,506.5,1858.5,18
1.2954e+12,396.99,1996.6,12
1.2954e+12,472.34,2107,8
1.2954e+12,493.02,1996.6,13
1.2954e+12,627.64,1996.6,14
1.2954e+12,612.02,1996.6,13
1.2954e+12,613.95,2107,8
1.2954e+12,617.99,1996.6,14
1.2954e+12,608.38,1996.6,13
1.2954e+12,608.86,1858.5,18
1.2954e+12,578.71,1996.6,13
1.2954e+12,596.21,1858.5,18
1.2954e+12,591.83,1996.6,13
1.2954e+12,542.85,2107,8
1.2954e+12,554.17,1996.6,13
1.2954e+12,427.43,1996.6,12
1.2954e+12,400.58,1858.5,17
1.2954e+12,357.61,1996.6,12
1.2954e+12,392.9,1858.5,17
1.2954e+12,465.11,1858.5,18
1.2954e+12,434.5,1858.5,17
1.2954e+12,454.86,1858.5,18
1.2954e+12,404.22,1858.5,17
1.2954e+12,448.02,1858.5,18
1.2954e+12,427.28,1858.5,17
1.2954e+12,325.67,1996.6,12
1.2954e+12,325.37,2107.1,7
1.2954e+12,314.04,1996.6,12
1.2954e+12,302.18,2107.1,7
1.2954e+12,299.88,1996.6,12
1.2954e+12,300.18,2107.1,7
1.2954e+12,313.53,1996.6,12
1.2954e+12,277.65,1996.6,11
1.2954e+12,217.04,2068.3,6
1.2954e+12,217.09,2188.9,1
1.2954e+12,299.27,2272.8,2
1.2954e+12,469.64,2272.8,3
1.2954e+12,626.39,2272.7,4
1.2954e+12,825.24,2205.6,5
1.2954e+12,800.56,2107,10
1.2954e+12,774.82,2107,9
1.2954e+12,736.61,1996.5,14
1.2954e+12,660.73,2107,9
1.2954e+12,779.9,1996.5,14
1.2954e+12,825.16,2025,15
1.2954e+12,825.11,1916.9,20
1.2954e+12,776.22,1858.5,19
1.2954e+12,825.07,1812.5,20
1.2954e+12,825.06,1793.6,25
1.2954e+12,825.06,1801.1,20
1.2954e+12,771.33,1858.5,19
1.2954e+12,825.07,1806.9,20
1.2954e+12,825.06,1785.6,25
1.2954e+12,775.39,1720.4,24
1.2954e+12,825.01,1669.8,25
1.2954e+12,825,1657.1,30
1.2954e+12,782.41,1499.4,35
1.2954e+12,770.12,1416.6,39
1.2954e+12,779.59,1416.6,40
1.2954e+12,824.87,1347,48
1.2954e+12,824.81,1227.8,55
1.2954e+12,824.77,1130.3,63
1.2954e+12,824.73,1022.3,71
1.2954e+12,774.78,974.66,70
1.2954e+12,784.53,891.81,79
1.2954e+12,779.78,781.33,0
1.2954e+12,767.27,781.34,82
1.2954e+12,244.17,891.85,74
1.2954e+12,299.44,848.24,75
1.2954e+12,326.45,781.37,94
1.2954e+12,727.96,974.67,70
1.2954e+12,734.29,891.81,78
1.2954e+12,735.42,781.34,82
1.2954e+12,820.17,781.33,83
1.2954e+12,824.65,844.73,79
1.2954e+12,779.04,891.81,78
1.2954e+12,824.67,905.61,79
1.2954e+12,807.98,974.66,71
1.2954e+12,783.16,781.33,83
1.2954e+12,769.34,781.34,82
1.2954e+12,778.13,781.33,0
1.2954e+12,781.67,781.33,83
1.2954e+12,778.31,781.33,0
1.2954e+12,781.63,781.33,83
1.2954e+12,686.49,974.67,70
1.2954e+12,797.02,781.33,83
1.2954e+12,575.89,891.82,77
1.2954e+12,632.83,781.34,82
1.2954e+12,624.94,891.82,77
1.2954e+12,630.7,781.34,81
1.2954e+12,633.13,781.34,82
1.2954e+12,562.06,891.82,77
1.2954e+12,640.44,891.82,78
1.2954e+12,661.12,781.34,82
1.2954e+12,824.69,933.23,71
