1.2955e+12,755.56,891.81,78
1.2955e+12,754.63,781.34,82
1.2955e+12,756.58,891.81,78
1.2955e+12,727.96,974.67,70
1.2955e+12,299.41,781.37,94
1.2955e+12,271.95,1195.6,51
1.2955e+12,248.51,1195.6,50
1.2955e+12,299.57,1144,51
1.2955e+12,259.97,1195.6,50
1.2955e+12,247.28,1085.2,58
1.2955e+12,230.71,974.7,66
1.2955e+12,244.77,1085.2,58
1.2955e+12,299.56,1135.1,59
1.2955e+12,299.57,1140.5,51
1.2955e+12,254.56,1195.6,50
1.2955e+12,235.97,1085.2,58
1.2955e+12,260.49,974.7,66
1.2955e+12,288.01,974.7,67
1.2955e+12,299.47,926.74,75
1.2955e+12,299.43,817.31,94
1.2955e+12,299.44,837.55,75
1.2955e+12,304.1,781.37,94
1.2955e+12,299.43,831.07,75
1.2955e+12,299.43,825.93,94
1.2955e+12,299.43,834.37,75
1.2955e+12,299.48,935.28,67
1.2955e+12,299.52,1039.6,59
1.2955e+12,299.57,1148.2,51
1.2955e+12,299.61,1244.3,44
1.2955e+12,314.59,1416.6,37
1.2955e+12,321.95,1278.5,44
1.2955e+12,308.09,1416.6,37
1.2955e+12,286.05,1499.4,31
1.2955e+12,299.01,1499.4,32
1.2955e+12,286.31,1499.4,31
1.2955e+12,285.2,1582.3,27
1.2955e+12,259.27,1582.3,26
1.2955e+12,282.94,1582.3,27
1.2955e+12,299.82,1720.4,22
1.2955e+12,288.41,1582.3,27
1.2955e+12,216.86,1652.5,26
1.2955e+12,281.19,1582.3,27
1.2955e+12,216.86,1640.2,26
1.2955e+12,286.1,1720.4,22
1.2955e+12,271.66,1720.4,21
1.2955e+12,216.86,1655.1,26
1.2955e+12,267.67,1720.4,21
1.2955e+12,281.95,1720.4,22
1.2955e+12,285.9,1858.5,17
1.2955e+12,290.18,1720.4,22
1.2955e+12,216.86,1653.7,26
1.2955e+12,285.11,1582.3,27
1.2955e+12,280.38,1720.4,22
1.2955e+12,277.72,1720.4,21
1.2955e+12,216.92,1796.5,16
1.2955e+12,265.25,1720.4,21
1.2955e+12,296.03,1720.4,22
1.2955e+12,487.16,1720.4,23
1.2955e+12,625.59,1720.4,24
1.2955e+12,788.13,1720.4,25
1.2955e+12,825.07,1811.8,20
1.2955e+12,825.12,1930.4,15
1.2955e+12,758.07,1996.5,14
1.2955e+12,825.14,1986.1,15
1.2955e+12,825.18,2063.2,10
1.2955e+12,728.4,1996.5,14
1.2955e+12,791.31,1996.5,15
1.2955e+12,825.18,2065.4,10
1.2955e+12,825.17,2046.3,15
1.2955e+12,825.17,2049.1,10
1.2955e+12,825.17,2043.4,15
1.2955e+12,825.17,2054.6,10
1.2955e+12,825.17,2044,15
1.2955e+12,825.17,2049.9,10
1.2955e+12,825.17,2036.2,15
1.2955e+12,825.17,2057.3,10
1.2955e+12,825.17,2038.3,15
1.2955e+12,825.11,1908,20
1.2955e+12,825.06,1785.4,25
1.2955e+12,825,1659.5,30
1.2955e+12,824.95,1545.4,35
1.2955e+12,824.91,1436.1,40
1.2955e+12,824.86,1339.2,48
1.2955e+12,824.82,1241.1,55
1.2955e+12,824.78,1136.9,63
1.2955e+12,824.73,1031.2,71
1.2955e+12,824.68,919.12,79
1.2955e+12,756.34,891.81,78
1.2955e+12,784.4,891.81,79
1.2955e+12,761.42,891.81,78
1.2955e+12,785.58,891.81,79
1.2955e+12,777.42,891.81,78
1.2955e+12,782.09,891.81,79
1.2955e+12,772.38,891.81,78
1.2955e+12,780.94,891.81,79
1.2955e+12,772,891.81,78
1.2955e+12,824.66,860.16,79
1.2955e+12,768.49,891.81,78
1.2955e+12,782.46,891.81,79
1.2955e+12,768.74,891.81,78
1.2955e+12,755.26,781.34,82
1.2955e+12,451.58,1085.2,60
1.2955e+12,686.49,974.67,70
1.2955e+12,705.21,891.81,78
1.2955e+12,780.94,891.81,79
1.2955e+12,824.69,932.7,71
