1.2955e+12,534.37,781.35,81
1.2955e+12,294.39,781.37,94
1.2955e+12,299.44,849.07,75
1.2955e+12,299.48,931.1,67
1.2955e+12,299.53,1054.1,59
1.2955e+12,319.24,1195.6,51
1.2955e+12,299.61,1246.3,44
1.2955e+12,293.95,1416.6,37
1.2955e+12,286.24,1416.6,36
1.2955e+12,285.8,1499.4,31
1.2955e+12,286.04,1582.3,27
1.2955e+12,273.17,1582.3,26
1.2955e+12,280.56,1582.3,27
1.2955e+12,277.92,1582.3,0
1.2955e+12,216.86,1648.9,26
1.2955e+12,216.87,1666.9,21
1.2955e+12,216.93,1805.6,16
1.2955e+12,216.98,1923.2,11
1.2955e+12,217.04,2061.9,6
1.2955e+12,217.09,2188.8,1
1.2955e+12,217.09,2178.9,6
1.2955e+12,217.09,2188.5,1
1.2955e+12,217.09,2175.9,6
1.2955e+12,217.09,2189.2,1
1.2955e+12,285.35,2272.8,2
1.2955e+12,447.24,2272.8,3
1.2955e+12,439.12,2272.8,2
1.2955e+12,468.9,2272.8,3
1.2955e+12,617.45,2272.7,4
1.2955e+12,825.24,2207.6,5
1.2955e+12,825.22,2164.2,10
1.2955e+12,825.17,2046.5,15
1.2955e+12,825.11,1896.4,20
1.2955e+12,825.06,1795.3,25
1.2955e+12,777.99,1720.4,24
1.2955e+12,791.26,1720.4,25
1.2955e+12,825,1648.4,30
1.2955e+12,824.95,1546.3,35
1.2955e+12,871,1499.4,41
1.2955e+12,1018.4,1418.6,0
1.2955e+12,980.31,1333.7,41
1.2955e+12,1018.4,1371.3,0
1.2955e+12,964.72,1333.7,41
1.2955e+12,851.11,1333.7,48
1.2955e+12,824.87,1348.6,0
1.2955e+12,824.86,1339,48
1.2955e+12,792.7,1195.6,55
1.2955e+12,824.78,1137.2,63
1.2955e+12,824.73,1022.8,71
1.2955e+12,824.69,931.36,79
1.2955e+12,824.64,824.07,83
1.2955e+12,774.15,781.33,82
1.2955e+12,755.6,974.67,70
1.2955e+12,783.16,781.33,83
1.2955e+12,769.42,974.66,70
1.2955e+12,796.98,781.33,83
1.2955e+12,672.67,974.67,70
1.2955e+12,796.98,781.33,83
