1.2955e+12,686.41,781.34,82
1.2955e+12,271.85,974.7,67
1.2955e+12,257.93,891.84,74
1.2955e+12,299.44,840.03,75
1.2955e+12,299.42,811.45,94
1.2955e+12,133.58,828.46,0
1.2955e+12,133.58,831.79,73
1.2955e+12,172.27,891.85,74
1.2955e+12,133.62,919.25,73
1.2955e+12,133.63,943.03,65
1.2955e+12,161.28,974.71,66
1.2955e+12,133.62,936.14,73
1.2955e+12,133.63,945.56,65
1.2955e+12,174.22,974.71,66
1.2955e+12,133.62,937.25,73
1.2955e+12,159.3,974.71,66
1.2955e+12,133.63,947.38,65
1.2955e+12,159.5,974.71,66
1.2955e+12,133.65,999.88,65
1.2955e+12,133.67,1047.2,57
1.2955e+12,169.13,1085.2,58
1.2955e+12,223.28,1195.6,50
1.2955e+12,228.96,1085.2,58
1.2955e+12,268.53,1085.2,59
1.2955e+12,299.57,1156.3,51
1.2955e+12,299.61,1245.9,44
1.2955e+12,316.75,1416.6,37
1.2955e+12,286.79,1499.4,31
1.2955e+12,299.47,1499.4,32
1.2955e+12,286.06,1582.3,27
1.2955e+12,283.21,1720.4,22
1.2955e+12,275.64,1720.4,21
1.2955e+12,280.78,1720.4,22
1.2955e+12,466.24,1720.4,23
1.2955e+12,442.03,1720.4,22
1.2955e+12,467.3,1720.4,23
1.2955e+12,442.46,1720.4,22
1.2955e+12,216.92,1782.5,21
1.2955e+12,216.92,1797.7,16
1.2955e+12,284.56,1858.5,17
1.2955e+12,462.82,1858.5,18
1.2955e+12,627.64,1858.5,19
1.2955e+12,825.11,1915.1,20
1.2955e+12,825.13,1951.9,15
1.2955e+12,825.18,2075.1,10
1.2955e+12,825.23,2191.4,5
1.2955e+12,825.23,2174.9,10
1.2955e+12,825.23,2193.2,5
1.2955e+12,825.23,2179.1,10
1.2955e+12,756.23,2107,9
1.2955e+12,798.92,2107,10
1.2955e+12,825.17,2035,15
1.2955e+12,825.18,2069,10
1.2955e+12,777.68,2107,9
1.2955e+12,597.49,2107,8
1.2955e+12,442.51,2272.8,2
1.2955e+12,496.55,2272.7,3
1.2955e+12,449.27,2107,8
1.2955e+12,424.73,2107,7
1.2955e+12,414.86,2272.8,2
1.2955e+12,594.77,1996.6,13
1.2955e+12,618.58,1996.6,14
1.2955e+12,593.22,1996.6,13
1.2955e+12,539.07,2107,8
1.2955e+12,431.49,2107,7
1.2955e+12,365.82,2272.8,2
1.2955e+12,461.89,2107,8
1.2955e+12,504.59,2272.7,3
1.2955e+12,489.11,2107,8
1.2955e+12,380.85,2107,7
1.2955e+12,492.47,2107,8
1.2955e+12,616.35,2107,9
1.2955e+12,757.88,1996.5,14
1.2955e+12,790.33,1996.5,15
1.2955e+12,774.64,1996.5,14
1.2955e+12,785.95,1996.5,15
1.2955e+12,773.24,1996.5,14
1.2955e+12,825.17,2046.4,15
1.2955e+12,825.17,2049.5,10
1.2955e+12,775.1,1996.5,14
1.2955e+12,781.26,1996.5,15
1.2955e+12,773.66,1996.5,14
1.2955e+12,783.77,1996.5,15
1.2955e+12,825.17,2053.3,10
1.2955e+12,767.42,2107,9
1.2955e+12,793.72,2107,10
1.2955e+12,825.17,2042.7,15
1.2955e+12,751.66,1858.5,19
1.2955e+12,781.38,1858.5,20
1.2955e+12,774.94,1858.5,19
1.2955e+12,825.06,1794.8,25
1.2955e+12,776.04,1720.4,24
1.2955e+12,782.72,1720.4,25
1.2955e+12,825,1656.9,30
1.2955e+12,824.95,1534.5,35
1.2955e+12,782.21,1416.6,40
1.2955e+12,775.28,1416.6,39
1.2955e+12,780.29,1416.6,40
1.2955e+12,824.86,1334.2,48
1.2955e+12,824.82,1228.5,55
1.2955e+12,824.78,1139.2,63
1.2955e+12,824.73,1030.7,71
1.2955e+12,824.68,913.6,79
1.2955e+12,778.24,891.81,78
1.2955e+12,782.52,891.81,79
1.2955e+12,617.3,781.35,81
1.2955e+12,451.49,891.83,76
1.2955e+12,496.99,891.83,77
1.2955e+12,485.6,891.83,76
1.2955e+12,488.68,891.83,77
1.2955e+12,648.17,891.82,78
1.2955e+12,734.25,974.67,70
1.2955e+12,824.65,850.38,79
1.2955e+12,824.64,815.36,83
1.2955e+12,824.64,827.48,79
1.2955e+12,824.63,792.97,83
1.2955e+12,824.65,839.36,79
1.2955e+12,824.64,822.76,83
1.2955e+12,773.8,781.33,82
1.2955e+12,796.98,781.33,83
1.2955e+12,727.92,891.81,78
