1.2955e+12,617.61,1499.4,34
1.2955e+12,672.8,1278.5,47
1.2955e+12,299.41,781.37,94
1.2955e+12,299.44,836.6,75
1.2955e+12,299.43,815.89,94
1.2955e+12,354.7,781.36,80
1.2955e+12,508.73,781.35,81
1.2955e+12,327.14,974.69,67
1.2955e+12,285.59,781.37,94
1.2955e+12,376.2,781.36,80
1.2955e+12,244.17,891.85,74
1.2955e+12,299.44,843.51,75
1.2955e+12,299.43,822.8,94
1.2955e+12,350.58,781.36,80
1.2955e+12,336.2,781.37,94
1.2955e+12,360.06,781.36,80
1.2955e+12,502.23,781.35,81
1.2955e+12,433.44,781.36,80
1.2955e+12,494.15,781.35,81
1.2955e+12,437.67,891.83,76
1.2955e+12,499.87,891.83,77
1.2955e+12,601.47,781.35,81
1.2955e+12,649.93,781.34,82
1.2955e+12,258,891.84,74
1.2955e+12,299.44,849.18,75
1.2955e+12,299.43,817.52,94
1.2955e+12,299.43,832.83,75
1.2955e+12,299.48,931.6,67
1.2955e+12,299.53,1051.1,59
1.2955e+12,275.08,1195.6,51
1.2955e+12,260.2,1195.6,50
1.2955e+12,248.9,1278.5,43
1.2955e+12,216.74,1374,36
1.2955e+12,216.78,1453.1,31
1.2955e+12,216.82,1553.9,26
1.2955e+12,216.87,1674.1,21
1.2955e+12,216.94,1827.2,16
1.2955e+12,216.98,1923.2,11
1.2955e+12,217.04,2055.7,6
1.2955e+12,217.03,2038.5,11
1.2955e+12,217.05,2080.9,6
1.2955e+12,217.03,2044.6,11
1.2955e+12,217.04,2053.4,6
1.2955e+12,217.1,2200.5,1
1.2955e+12,217.06,2099.1,6
1.2955e+12,217.03,2046.2,11
1.2955e+12,250.37,2107.1,6
1.2955e+12,217.03,2034.4,11
1.2955e+12,217.05,2078.6,6
1.2955e+12,217.03,2044.5,11
1.2955e+12,217.04,2071.9,6
1.2955e+12,217.03,2045.4,11
1.2955e+12,217.03,2048.4,6
1.2955e+12,217.1,2200.7,1
1.2955e+12,217.07,2122.5,6
1.2955e+12,217.03,2047.2,11
1.2955e+12,217.03,2050,6
1.2955e+12,217.03,2047.5,11
1.2955e+12,217.04,2053.3,6
1.2955e+12,217.03,2046.3,11
1.2955e+12,217.03,2048.5,6
1.2955e+12,217.03,2044.7,11
1.2955e+12,217.04,2071.2,6
1.2955e+12,217.11,2217.1,1
1.2955e+12,285.45,2272.8,2
1.2955e+12,452.18,2272.8,3
1.2955e+12,624.83,2272.7,4
1.2955e+12,608.68,2272.7,3
1.2955e+12,650.32,2272.7,4
1.2955e+12,608.17,2272.7,3
1.2955e+12,617.02,2272.7,4
1.2955e+12,569.6,2272.7,3
1.2955e+12,626.2,2272.7,4
1.2955e+12,825.23,2193.9,5
1.2955e+12,825.22,2158.6,10
1.2955e+12,825.17,2041.3,15
1.2955e+12,825.1,1891.9,20
1.2955e+12,825.06,1795.8,25
1.2955e+12,825,1659.5,30
1.2955e+12,824.95,1548.5,35
1.2955e+12,885.73,1499.4,41
1.2955e+12,855.98,1444.2,40
1.2955e+12,824.92,1459.5,35
1.2955e+12,828.58,1444.2,40
1.2955e+12,824.86,1341.9,48
1.2955e+12,824.82,1230.1,55
1.2955e+12,824.76,1111.9,63
1.2955e+12,824.71,994.55,71
1.2955e+12,824.68,910.39,79
1.2955e+12,778.02,891.81,78
1.2955e+12,780.87,891.81,79
1.2955e+12,779.88,891.81,78
1.2955e+12,782.49,891.81,79
1.2955e+12,824.63,811.7,83
1.2955e+12,824.71,983.38,71
1.2955e+12,824.68,906.22,79
1.2955e+12,824.62,781.33,83
1.2955e+12,824.65,845.02,79
1.2955e+12,774.19,891.81,78
1.2955e+12,621.49,891.82,77
1.2955e+12,641.34,891.82,78
1.2955e+12,784.57,891.81,79
1.2955e+12,824.74,1057.5,63
1.2955e+12,759.86,1085.1,62
1.2955e+12,779.66,1085.1,63
1.2955e+12,824.73,1024.7,71
1.2955e+12,824.68,928.49,79
1.2955e+12,797.29,1499.4,35
1.2955e+12,509,1278.5,46
1.2955e+12,603.12,1195.6,53
1.2955e+12,824.74,1057.5,63
1.2955e+12,824.72,1016.1,71
1.2955e+12,788.82,1085.1,63
1.2955e+12,755.92,1085.1,62
1.2955e+12,790.79,1085.1,63
1.2955e+12,534.59,1278.5,46
1.2955e+12,622.84,1195.6,53
1.2955e+12,604.72,1278.5,46
1.2955e+12,824.71,988.47,71
1.2955e+12,824.74,1052.1,63
1.2955e+12,778.09,1195.6,54
1.2955e+12,796.92,1195.6,55
1.2955e+12,824.77,1126.3,63
