1.2955e+12,340.96,974.69,67
1.2955e+12,299.47,912.56,75
1.2955e+12,299.43,819.54,94
1.2955e+12,603.48,781.35,81
1.2955e+12,727.87,781.34,82
1.2955e+12,603.48,781.35,81
1.2955e+12,479.09,781.36,80
1.2955e+12,540.83,781.35,81
1.2955e+12,466.15,781.36,80
1.2955e+12,338.2,781.36,94
1.2955e+12,346.45,781.36,80
1.2955e+12,521.93,781.35,81
1.2955e+12,635.02,781.34,82
1.2955e+12,626.6,781.34,81
1.2955e+12,460.08,781.36,80
1.2955e+12,422.05,891.83,76
1.2955e+12,476.08,781.36,80
1.2955e+12,491.81,781.35,81
1.2955e+12,634.86,781.34,82
1.2955e+12,613.38,781.35,81
1.2955e+12,467.38,781.36,80
1.2955e+12,491.83,781.35,81
1.2955e+12,644.19,781.34,82
1.2955e+12,622.7,781.35,81
1.2955e+12,487.87,781.35,80
1.2955e+12,338.8,781.36,94
1.2955e+12,345.04,781.36,80
1.2955e+12,341.5,781.36,94
1.2955e+12,342.14,781.36,0
1.2955e+12,323.97,781.37,94
1.2955e+12,216.53,891.85,74
1.2955e+12,299.43,829.7,75
1.2955e+12,299.42,808.99,94
1.2955e+12,299.43,826.42,75
1.2955e+12,299.43,825.82,94
1.2955e+12,361.57,781.36,80
1.2955e+12,493.17,781.35,81
1.2955e+12,651.83,781.34,82
1.2955e+12,650.1,891.82,78
1.2955e+12,631.04,891.82,77
1.2955e+12,575.13,781.35,81
1.2955e+12,471.47,781.36,80
1.2955e+12,450.79,891.83,76
1.2955e+12,299.47,911.29,75
1.2955e+12,326.97,974.69,67
1.2955e+12,299.53,1053,59
1.2955e+12,299.57,1148.9,51
1.2955e+12,299.62,1262.3,44
1.2955e+12,306.72,1416.6,37
1.2955e+12,380.27,1278.5,45
1.2955e+12,365.67,1416.6,37
1.2955e+12,299.75,1499.4,32
1.2955e+12,286.84,1499.4,31
1.2955e+12,299.18,1499.4,32
1.2955e+12,286.95,1499.4,31
1.2955e+12,299.09,1499.4,32
1.2955e+12,286.9,1499.4,31
1.2955e+12,299.17,1499.4,32
1.2955e+12,287.14,1582.3,27
1.2955e+12,285.3,1720.4,22
1.2955e+12,274.85,1720.4,21
1.2955e+12,281.77,1720.4,22
1.2955e+12,216.92,1788.1,21
1.2955e+12,216.93,1798.9,16
1.2955e+12,282.14,1858.5,17
1.2955e+12,445.18,1720.4,22
1.2955e+12,449.03,1858.5,18
1.2955e+12,423.12,1858.5,17
1.2955e+12,277.12,1858.5,16
1.2955e+12,216.98,1923.1,11
1.2955e+12,217.04,2073.9,6
1.2955e+12,260.99,2272.8,1
1.2955e+12,217.09,2168.5,6
1.2955e+12,217.02,2014.4,11
1.2955e+12,217.04,2063.9,6
1.2955e+12,217.02,2024.9,11
1.2955e+12,217.04,2060.3,6
1.2955e+12,217.03,2045.7,11
1.2955e+12,217.04,2071.3,6
1.2955e+12,217.03,2038.4,11
1.2955e+12,217.04,2063.5,6
1.2955e+12,217.03,2046.8,11
1.2955e+12,217.04,2066.5,6
1.2955e+12,292.54,2107.1,7
1.2955e+12,306.97,1996.6,12
1.2955e+12,286.28,2107.1,7
1.2955e+12,217.06,2118.6,6
1.2955e+12,284.27,1996.6,12
1.2955e+12,263.94,2107.1,6
1.2955e+12,281.62,2107.1,7
1.2955e+12,217.05,2091.7,6
1.2955e+12,217.03,2047.1,11
1.2955e+12,217.03,2050.7,6
1.2955e+12,217.1,2201.2,1
1.2955e+12,309.54,2272.8,2
1.2955e+12,459.59,2272.8,3
1.2955e+12,442.09,2272.8,2
1.2955e+12,447.39,2272.8,3
1.2955e+12,626.67,2272.7,4
1.2955e+12,613.22,2272.7,3
1.2955e+12,624.91,2272.7,4
1.2955e+12,605.53,2272.7,3
1.2955e+12,436.5,2272.8,2
1.2955e+12,273.73,2272.8,1
1.2955e+12,217.09,2178.5,6
1.2955e+12,217.02,2006.4,11
1.2955e+12,216.98,1916.9,16
1.2955e+12,216.92,1784.8,21
1.2955e+12,216.86,1646,26
1.2955e+12,216.81,1536,31
1.2955e+12,216.75,1404.3,36
1.2955e+12,216.72,1331.5,43
1.2955e+12,278.34,1278.5,44
1.2955e+12,299.61,1230.1,51
1.2955e+12,299.56,1128.1,59
1.2955e+12,233.05,1085.2,58
1.2955e+12,282.18,1085.2,59
1.2955e+12,299.52,1032.5,67
1.2955e+12,342.61,974.69,0
1.2955e+12,363.35,974.69,68
1.2955e+12,487.5,974.68,69
1.2955e+12,638.7,974.67,70
1.2955e+12,779.77,974.66,71
1.2955e+12,824.74,1061.2,63
1.2955e+12,824.73,1030.7,71
1.2955e+12,824.73,1039.3,63
1.2955e+12,824.73,1030.7,71
1.2955e+12,824.75,1083.9,63
1.2955e+12,824.71,995.37,71
1.2955e+12,824.73,1036.8,63
1.2955e+12,824.71,997.68,71
1.2955e+12,824.73,1042.9,63
1.2955e+12,772.15,1085.1,62
1.2955e+12,586.51,1085.2,61
1.2955e+12,473.72,1085.2,60
1.2955e+12,494.41,974.68,69
1.2955e+12,648.56,1085.1,62
1.2955e+12,824.74,1050.9,63
1.2955e+12,824.73,1035.6,71
1.2955e+12,824.73,1039.3,63
1.2955e+12,824.73,1034.2,71
1.2955e+12,824.73,1041.3,63
1.2955e+12,824.73,1030.5,71
1.2955e+12,824.73,1041.8,63
1.2955e+12,824.72,1002.9,71
1.2955e+12,824.76,1098.6,63
1.2955e+12,824.73,1023.8,71
1.2955e+12,824.75,1083.4,63
1.2955e+12,824.73,1025.4,71
1.2955e+12,824.74,1046.7,63
1.2955e+12,824.73,1031.9,71
1.2955e+12,824.74,1064.1,63
1.2955e+12,824.78,1142.7,55
1.2955e+12,824.76,1094,63
1.2955e+12,824.79,1175.8,55
1.2955e+12,767.7,1195.6,54
1.2955e+12,784.56,1195.6,55
1.2955e+12,824.78,1137.6,63
1.2955e+12,824.78,1156.8,55
1.2955e+12,437.8,1195.6,52
1.2955e+12,500,1195.6,53
1.2955e+12,520.77,1278.5,46
1.2955e+12,562.2,1195.6,53
1.2955e+12,824.73,1043.7,63
1.2955e+12,230.44,1085.2,58
1.2955e+12,299.51,1009.2,67
1.2955e+12,299.52,1036.3,59
1.2955e+12,240.18,1085.2,58
1.2955e+12,824.7,974.66,71
1.2955e+12,824.76,1108.4,63
1.2955e+12,755.69,1195.6,54
1.2955e+12,786.29,1085.1,63
1.2955e+12,824.78,1144.8,55
1.2955e+12,769.48,1278.5,47
1.2955e+12,824.79,1181.8,55
1.2955e+12,824.77,1131.7,63
1.2955e+12,1018.4,1333.7,0
1.2955e+12,824.75,1079,63
1.2955e+12,824.72,1006.7,71
1.2955e+12,824.73,1042,63
1.2955e+12,824.73,1027.4,71
1.2955e+12,824.67,900.94,79
1.2955e+12,756.3,781.34,82
1.2955e+12,766.48,891.81,78
1.2955e+12,767.07,781.34,82
1.2955e+12,782.98,781.33,83
1.2955e+12,783.2,891.81,79
1.2955e+12,792.77,781.33,83
1.2955e+12,824.64,833.71,79
1.2955e+12,764.93,891.81,78
1.2955e+12,755.6,974.67,70
