1.2955e+12,244.17,891.85,74
1.2955e+12,299.43,822.8,94
1.2955e+12,299.43,832.01,75
1.2955e+12,299.43,824.68,94
1.2955e+12,299.57,1140.4,51
1.2955e+12,384.51,1085.2,60
1.2955e+12,342.24,1085.2,59
1.2955e+12,346.73,1085.2,60
1.2955e+12,299.52,1036.8,59
1.2955e+12,299.51,1016.1,67
1.2955e+12,299.47,912.56,75
1.2955e+12,299.42,807.39,94
1.2955e+12,299.43,832.84,75
1.2955e+12,349.61,891.84,76
1.2955e+12,344,891.84,0
1.2955e+12,341.14,891.84,75
1.2955e+12,299.48,938.68,67
1.2955e+12,260.7,974.7,66
1.2955e+12,148.8,974.71,65
1.2955e+12,133.67,1042.9,57
1.2955e+12,133.72,1163,49
1.2955e+12,133.76,1245.4,42
1.2955e+12,153.09,1278.5,0
1.2955e+12,216.72,1326.5,43
1.2955e+12,154.55,1278.5,0
1.2955e+12,216.71,1309.3,43
1.2955e+12,284.16,1278.5,44
1.2955e+12,353.75,1278.5,45
1.2955e+12,341.98,1278.5,44
1.2955e+12,328.87,1416.6,37
1.2955e+12,340.99,1278.5,44
1.2955e+12,347.22,1416.6,37
1.2955e+12,299.91,1499.4,32
1.2955e+12,287.76,1499.4,31
1.2955e+12,271.72,1582.3,26
1.2955e+12,285.45,1582.3,27
1.2955e+12,272.64,1582.3,26
1.2955e+12,283.9,1582.3,27
1.2955e+12,274.05,1582.3,26
1.2955e+12,216.87,1675,21
1.2955e+12,280.49,1720.4,22
1.2955e+12,277.04,1720.4,21
1.2955e+12,271.72,1858.5,16
1.2955e+12,298.62,1858.5,17
1.2955e+12,277.06,1858.5,16
1.2955e+12,297.76,1858.5,17
1.2955e+12,274.66,1858.5,16
1.2955e+12,216.99,1942.5,11
1.2955e+12,292.5,1996.6,12
1.2955e+12,323.19,2107.1,7
1.2955e+12,332.47,1996.6,12
1.2955e+12,517.68,1996.6,13
1.2955e+12,537.16,2107,8
1.2955e+12,528.96,1996.6,13
1.2955e+12,427.04,1996.6,12
1.2955e+12,515.48,1996.6,13
1.2955e+12,638.94,1996.6,14
1.2955e+12,603.35,2107,8
1.2955e+12,582.57,1996.6,13
1.2955e+12,423.44,1858.5,17
1.2955e+12,422.3,1996.6,12
1.2955e+12,442.97,1858.5,17
1.2955e+12,463.7,1858.5,18
1.2955e+12,567.67,1996.6,13
1.2955e+12,617.88,2107,9
1.2955e+12,566.22,1996.6,13
1.2955e+12,441.75,1996.6,12
1.2955e+12,274.72,1996.6,11
1.2955e+12,217.04,2055.6,6
1.2955e+12,217.1,2194.5,1
1.2955e+12,313.08,2272.8,2
1.2955e+12,459.62,2272.8,3
1.2955e+12,666.88,2272.7,4
1.2955e+12,825.24,2205,5
1.2955e+12,768.05,2107,9
1.2955e+12,825.18,2076.5,10
1.2955e+12,825.17,2045.4,15
1.2955e+12,825.17,2049.6,10
1.2955e+12,825.16,2033.7,15
1.2955e+12,825.11,1905.7,20
1.2955e+12,825.06,1786.8,25
1.2955e+12,775.48,1720.4,24
1.2955e+12,782.43,1720.4,25
1.2955e+12,824.99,1639.1,30
1.2955e+12,776.14,1582.3,29
1.2955e+12,793.3,1582.3,30
1.2955e+12,824.94,1515,35
1.2955e+12,778.42,1416.6,39
1.2955e+12,790.98,1416.6,40
1.2955e+12,824.86,1326,48
1.2955e+12,774.69,1278.5,47
1.2955e+12,628.89,1278.5,46
1.2955e+12,473.81,1278.5,45
1.2955e+12,341.78,1278.5,44
1.2955e+12,299.61,1240.3,51
1.2955e+12,351.15,1195.6,52
1.2955e+12,358.22,1278.5,45
1.2955e+12,372.62,1195.6,52
1.2955e+12,338.41,1195.6,51
1.2955e+12,326.92,1278.5,44
1.2955e+12,343.8,1278.5,45
1.2955e+12,299.57,1140.4,51
1.2955e+12,395.26,1195.6,52
1.2955e+12,423.5,1085.2,60
1.2955e+12,349.42,1195.6,52
1.2955e+12,334.48,1195.6,51
1.2955e+12,392.27,1278.5,45
1.2955e+12,388.34,1195.6,52
1.2955e+12,359.24,1278.5,45
1.2955e+12,378.18,1195.6,52
1.2955e+12,371.89,1278.5,45
1.2955e+12,369.2,1195.6,52
1.2955e+12,382.33,1278.5,45
1.2955e+12,392.47,1195.6,52
1.2955e+12,395.59,1278.5,45
1.2955e+12,417.8,1195.6,52
1.2955e+12,493.16,1195.6,53
1.2955e+12,641.67,1195.6,54
1.2955e+12,824.78,1155.1,55
1.2955e+12,824.77,1130.2,63
1.2955e+12,824.72,1007.4,71
1.2955e+12,807.82,891.81,79
1.2955e+12,777.02,891.81,78
1.2955e+12,780.67,891.81,79
1.2955e+12,773.44,891.81,78
1.2955e+12,780.43,891.81,79
1.2955e+12,765.39,891.81,78
1.2955e+12,824.66,863.96,79
1.2955e+12,774.67,891.81,78
1.2955e+12,789.47,891.81,79
1.2955e+12,721.09,891.81,78
1.2955e+12,824.72,1016.1,71
1.2955e+12,824.63,808.95,83
1.2955e+12,824.64,827.68,79
1.2955e+12,824.72,1016.1,71
1.2955e+12,759.57,891.81,78
1.2955e+12,824.62,781.33,83
