1.2954e+12,327.19,1085.2,59
1.2954e+12,299.52,1031.6,67
1.2954e+12,324.4,891.84,75
1.2954e+12,331.65,974.69,67
1.2954e+12,345.05,974.69,68
1.2954e+12,342.34,974.69,0
1.2954e+12,327.14,974.69,67
1.2954e+12,202.66,781.37,94
1.2954e+12,299.51,1016.1,67
1.2954e+12,299.47,921.1,75
1.2954e+12,299.42,800.63,94
1.2954e+12,299.43,828.68,75
1.2954e+12,299.42,803.76,94
1.2954e+12,374.44,781.36,80
1.2954e+12,332.14,781.37,94
1.2954e+12,299.52,1029.9,67
1.2954e+12,230.35,891.85,74
1.2954e+12,368.52,781.36,80
1.2954e+12,244.17,891.85,74
1.2954e+12,617.3,781.35,81
1.2954e+12,230.35,891.85,74
1.2954e+12,260.19,781.37,94
1.2954e+12,299.43,834.59,75
1.2954e+12,351.64,891.84,76
1.2954e+12,512.16,891.83,77
1.2954e+12,485.43,891.83,76
1.2954e+12,525.62,891.83,77
1.2954e+12,474.69,891.83,76
1.2954e+12,497.85,891.83,77
1.2954e+12,482.55,891.83,76
1.2954e+12,499.03,891.83,77
1.2954e+12,477.53,891.83,76
1.2954e+12,491.22,891.83,77
1.2954e+12,642.53,891.82,78
1.2954e+12,784.86,891.81,79
1.2954e+12,824.7,965,71
1.2954e+12,775.31,974.66,70
1.2954e+12,782.53,974.66,71
1.2954e+12,772.75,974.66,70
1.2954e+12,779.73,974.66,71
1.2954e+12,824.74,1049,63
1.2954e+12,824.78,1149.6,55
1.2954e+12,778.12,1195.6,54
1.2954e+12,631.73,1195.6,53
1.2954e+12,605.73,1085.1,61
1.2954e+12,425.28,1195.6,52
1.2954e+12,299.61,1231.9,51
1.2954e+12,299.61,1246.3,44
1.2954e+12,354.33,1278.5,45
1.2954e+12,341.77,1278.5,44
1.2954e+12,302.44,1416.6,37
1.2954e+12,300.07,1499.4,32
1.2954e+12,285.87,1582.3,27
1.2954e+12,216.86,1645.8,26
1.2954e+12,279.87,1720.4,22
1.2954e+12,277.18,1720.4,21
1.2954e+12,284.04,1720.4,22
1.2954e+12,274.13,1720.4,21
1.2954e+12,216.93,1799,16
1.2954e+12,283.56,1858.5,17
1.2954e+12,470.36,1858.5,18
1.2954e+12,617.07,1858.5,19
1.2954e+12,786.66,1858.5,20
1.2954e+12,825.12,1920.8,15
1.2954e+12,825.11,1918.6,20
1.2954e+12,825.12,1926.9,15
1.2954e+12,755.63,1996.5,14
1.2954e+12,603.63,1996.6,13
1.2954e+12,539.76,1858.5,18
1.2954e+12,478.57,1720.4,23
1.2954e+12,446.05,1720.4,22
1.2954e+12,427.95,1582.3,27
1.2954e+12,445.96,1720.4,22
1.2954e+12,454.43,1720.4,23
1.2954e+12,548.97,1858.5,18
1.2954e+12,442.36,1858.5,17
1.2954e+12,399.25,1996.6,12
1.2954e+12,463.32,1996.6,13
1.2954e+12,483.99,1858.5,18
1.2954e+12,624.19,1858.5,19
1.2954e+12,614,1858.5,18
1.2954e+12,521.8,1996.6,13
1.2954e+12,438.87,1996.6,12
1.2954e+12,260.84,1996.6,11
1.2954e+12,217.04,2060,6
1.2954e+12,217.02,2017.7,11
1.2954e+12,217.03,2050.2,6
1.2954e+12,217.02,2023.2,11
1.2954e+12,217.04,2072.9,6
1.2954e+12,286.95,2107.1,7
1.2954e+12,326.91,1996.6,12
1.2954e+12,312.25,2107.1,7
1.2954e+12,278.19,2107.1,6
1.2954e+12,283.5,2107.1,7
1.2954e+12,269.02,2107.1,6
1.2954e+12,217.02,2009.9,11
1.2954e+12,281.96,1996.6,12
1.2954e+12,312.58,2107.1,7
1.2954e+12,326.23,1996.6,12
1.2954e+12,354.13,2107,7
1.2954e+12,296.05,1996.6,12
1.2954e+12,406.86,2107,7
1.2954e+12,385.58,1996.6,12
1.2954e+12,483.12,1996.6,13
1.2954e+12,622.76,1996.6,14
1.2954e+12,605.31,1996.6,13
1.2954e+12,592.91,2107,8
1.2954e+12,619.26,1996.6,14
1.2954e+12,599.66,1996.6,13
1.2954e+12,623.31,1996.6,14
1.2954e+12,612.4,1996.6,13
1.2954e+12,616.61,2107,9
1.2954e+12,628.62,1996.6,14
1.2954e+12,792.33,1996.5,15
1.2954e+12,773.07,2107,9
1.2954e+12,603.91,2107,8
1.2954e+12,532.25,1996.6,13
1.2954e+12,532.3,2107,8
1.2954e+12,428.64,2107,7
1.2954e+12,300.95,1996.6,12
1.2954e+12,435.65,2107,7
1.2954e+12,455.93,2107,8
1.2954e+12,423.25,2107,7
1.2954e+12,458.78,2107,8
1.2954e+12,413.64,2107,7
1.2954e+12,445.13,1996.6,12
1.2954e+12,522.72,1996.6,13
1.2954e+12,584.07,1858.5,18
1.2954e+12,615.21,1858.5,19
1.2954e+12,605.95,1858.5,18
1.2954e+12,616.8,1858.5,19
1.2954e+12,590.86,1858.5,18
1.2954e+12,299.88,1858.5,17
1.2954e+12,309.43,1996.6,12
1.2954e+12,367.06,2107,7
1.2954e+12,505.47,2107,8
1.2954e+12,620.71,2107,9
1.2954e+12,614.4,2107,8
1.2954e+12,418.84,2107,7
1.2954e+12,297.29,1996.6,12
1.2954e+12,252,1996.6,11
1.2954e+12,250.85,2107.1,6
1.2954e+12,217.09,2187,1
1.2954e+12,217.09,2178.8,6
1.2954e+12,217.09,2186.6,1
1.2954e+12,284.93,2272.8,2
1.2954e+12,448.51,2272.8,3
1.2954e+12,616.52,2272.7,4
1.2954e+12,611.03,2272.7,3
1.2954e+12,623.87,2272.7,4
1.2954e+12,615.53,2272.7,3
1.2954e+12,620.96,2272.7,4
1.2954e+12,606.44,2272.7,3
1.2954e+12,624.06,2272.7,4
1.2954e+12,601.58,2272.7,3
1.2954e+12,622.82,2272.7,4
1.2954e+12,780.64,2272.7,0
1.2954e+12,782.6,2272.7,5
1.2954e+12,779.42,2272.7,4
1.2954e+12,786.76,2272.7,5
1.2954e+12,780.28,2272.7,0
1.2954e+12,785.51,2272.7,5
1.2954e+12,759.02,2272.7,4
1.2954e+12,825.24,2204.5,5
1.2954e+12,825.23,2178.5,10
1.2954e+12,825.23,2187.1,5
1.2954e+12,825.23,2177.9,10
1.2954e+12,779.3,2107,9
1.2954e+12,825.21,2146,10
1.2954e+12,779.93,2107,9
1.2954e+12,825.18,2075,10
1.2954e+12,825.17,2037.8,15
1.2954e+12,825.11,1917.5,20
1.2954e+12,825.06,1786.9,25
1.2954e+12,775.18,1720.4,24
1.2954e+12,825.01,1683,25
1.2954e+12,825,1656.3,30
1.2954e+12,824.95,1544.8,35
1.2954e+12,824.91,1447.5,40
1.2954e+12,860.86,1333.7,41
1.2954e+12,1018.4,1388.7,0
1.2954e+12,963.48,1444.2,41
1.2954e+12,857.29,1333.7,48
1.2954e+12,824.87,1363.6,40
1.2954e+12,824.86,1342.2,48
1.2954e+12,824.82,1240.9,55
1.2954e+12,824.82,1248.1,48
1.2954e+12,824.82,1238,55
1.2954e+12,824.78,1138,63
1.2954e+12,824.73,1026.4,71
1.2954e+12,824.68,925.9,79
1.2954e+12,759.56,891.81,78
1.2954e+12,732.7,781.34,82
1.2954e+12,803.45,781.33,83
1.2954e+12,700.44,1278.5,47
1.2954e+12,755.69,1195.6,54
1.2954e+12,747.88,1085.1,62
1.2954e+12,824.74,1045.2,63
1.2954e+12,824.73,1024.5,71
1.2954e+12,778.56,974.66,70
1.2954e+12,782.96,891.81,79
1.2954e+12,824.64,821.06,83
1.2954e+12,741.74,891.81,78
1.2954e+12,824.66,862.27,79
1.2954e+12,824.62,781.33,83
1.2954e+12,769.08,781.34,82
1.2954e+12,747.81,891.81,78
1.2954e+12,824.7,960.85,71
1.2954e+12,824.68,924.56,79
1.2954e+12,799.39,781.33,83
1.2954e+12,824.65,838.45,79
1.2954e+12,824.69,943.33,71
1.2954e+12,824.68,906.56,79
1.2954e+12,824.64,815.18,83
1.2954e+12,824.64,828.69,79
1.2954e+12,824.62,781.33,83
1.2954e+12,799.22,974.66,71
1.2954e+12,534.55,1195.6,53
1.2954e+12,641.2,1195.6,54
1.2954e+12,669.5,1085.1,62
1.2954e+12,709.69,974.67,70
1.2954e+12,810.8,781.33,83
1.2954e+12,824.71,988.47,71
1.2954e+12,824.64,836.57,79
1.2954e+12,824.63,812.79,83
1.2954e+12,824.73,1029.9,71
1.2954e+12,728,1085.1,62
1.2954e+12,824.62,781.33,83
